{
    "results": [
        {
            "title": "Sainsbury\u0027s Strawberries 400g",
            "kcal_per_100g": 33,
            "unit_price": 1.75,
            "description": "by Sainsbury\u0027s strawberries"
        },
        {
            "title": "Sainsbury\u0027s Blueberries 200g",
            "kcal_per_100g": 45,
            "unit_price": 1.75,
            "description": "by Sainsbury\u0027s blueberries"
        },
        {
            "title": "Sainsbury\u0027s Raspberries 225g",
            "kcal_per_100g": 32,
            "unit_price": 1.75,
            "description": "by Sainsbury\u0027s raspberries"
        },
        {
            "title": "Sainsbury\u0027s Blackberries, Sweet 150g",
            "kcal_per_100g": 32,
            "unit_price": 1.5,
            "description": "by Sainsbury\u0027s blackberries"
        },
        {
            "title": "Sainsbury\u0027s Blueberries 400g",
            "kcal_per_100g": 45,
            "unit_price": 3.25,
            "description": "by Sainsbury\u0027s blueberries"
        },
        {
            "title": "Sainsbury\u0027s Blueberries, SO Organic 150g",
            "kcal_per_100g": 45,
            "unit_price": 2.0,
            "description": "So Organic blueberries"
        },
        {
            "title": "Sainsbury\u0027s Raspberries, Taste the Difference 150g",
            "kcal_per_100g": 32,
            "unit_price": 2.5,
            "description": "Ttd raspberries"
        },
        {
            "title": "Sainsbury\u0027s Cherries 400g",
            "kcal_per_100g": 52,
            "unit_price": 2.5,
            "description": "by Sainsbury\u0027s Family Cherry Punnet"
        },
        {
            "title": "Sainsbury\u0027s Blackberries, Tangy 150g",
            "kcal_per_100g": 32,
            "unit_price": 1.5,
            "description": "by Sainsbury\u0027s blackberries"
        },
        {
            "title": "Sainsbury\u0027s Strawberries, Taste the Difference 300g",
            "kcal_per_100g": 33,
            "unit_price": 2.5,
            "description": "Ttd strawberries"
        },
        {
            "title": "Sainsbury\u0027s Cherry Punnet 200g",
            "kcal_per_100g": 52,
            "unit_price": 1.5,
            "description": "Cherries"
        },
        {
            "title": "Sainsbury\u0027s Mixed Berries 300g",
            "unit_price": 3.5,
            "description": "by Sainsbury\u0027s mixed berries"
        },
        {
            "title": "Sainsbury\u0027s Mixed Berry Twin Pack 200g",
            "unit_price": 2.75,
            "description": "Mixed Berries"
        },
        {
            "title": "Sainsbury\u0027s Redcurrants 150g",
            "kcal_per_100g": 71,
            "unit_price": 2.5,
            "description": "by Sainsbury\u0027s redcurrants"
        },
        {
            "title": "Sainsbury\u0027s Cherry Punnet, Taste the Difference 200g",
            "kcal_per_100g": 48,
            "unit_price": 2.5,
            "description": "Cherry Punnet"
        },
        {
            "title": "Sainsbury\u0027s Blackcurrants 150g",
            "unit_price": 1.75,
            "description": "Union Flag"
        },
        {
            "title": "Sainsbury\u0027s British Cherry \u0026 Strawberry Pack 600g",
            "unit_price": 4.0,
            "description": "British Cherry \u0026 Strawberry Mixed Pack"
        }
    ],
    "total": 39.5
}